10.1016/s0191-8869(15)00056-2,10.1016/s0191-8869(15)00113-0,6.15749000000001,self,duplicate-check
10.1016/s0191-8869(15)00056-2,10.1016/s0191-8869(14)00617-5,6.473140000000001,self,duplicate-check
10.1016/s0191-8869(15)00056-2,10.1016/s0191-8869(14)00735-1,6.481363999999999,self,duplicate-check
10.1016/s0191-8869(15)00056-2,10.1016/s0191-8869(15)00018-5,6.481363999999999,self,duplicate-check
10.3109/02770908709070949,10.3109/02770908709070961,4.400719999999993,self,duplicate-check
10.3109/02770908709070949,10.3109/02770908709070939,4.400719999999993,self,duplicate-check
10.3109/02770908709070949,10.3109/02770908709070929,4.532019999999989,self,duplicate-check
10.3109/02770908709070949,10.3109/02770908709073197,4.590319999999991,self,duplicate-check
10.2307/254041,10.1057/palgrave.jors.2600068,0.840880999999996,other,duplicate
10.2307/3046895,10.1080/00043079.1943.11409202,4.646159999999995,other,duplicate-check
10.33029/0016-9900-2020-99-5-488-492,10.47470/0016-9900-2020-99-5-488-492,1.9243800000000135,self,duplicate
10.3138/chr-046-03-br08,10.3138/chr-046-04-br83,1.2714260000000053,self,duplicate
10.1080/00461520.1990.9653113,10.1207/s15326985ep2503&4_6,1.306203999999994,self,duplicate
10.1001/jama.1977.03270490039021,10.1001/jama.237.22.2399,3.244805999999997,self,duplicate
10.17345/rcda1308,10.17345/1308,0.03363999999999123,self,duplicate-check
10.17345/rcda1308,10.17345/1409,8.926559999999995,self,duplicate-check
10.17345/rcda1308,10.17345/1852,9.00372999999999,self,duplicate-check
10.17345/rcda1308,10.17345/rcda1409,9.00372999999999,self,duplicate-check
10.1109/tnet.2022.3163957,10.1109/tnet.2022.3179096,0.028430000000000177,self,duplicate-check
10.1109/tnet.2022.3163957,10.1109/tnet.2022.3142614,0.0,self,duplicate-check
10.1109/tnet.2022.3163957,10.1109/tnet.2022.3194743,0.0,self,duplicate-check
10.1109/tnet.2022.3163957,10.1109/tnet.2006.874674,6.600149999999999,self,duplicate-check
10.1002/bes2.1365,10.1890/0012-9623(2007)88[22:motegb]2.0.co;2,2.8425629999999913,self,duplicate-check
10.1002/bes2.1365,10.1890/0012-9623(2003)84[20:motegb]2.0.co;2,1.8176029999999983,self,duplicate-check
10.1002/bes2.1365,10.1890/0012-9623(2003)84[21:motegb]2.0.co;2,0.9385129999999933,self,duplicate-check
10.1002/bes2.1365,10.1890/0012-9623(1999)080[0227:motegb]2.0.co;2,0.5038929999999979,self,duplicate-check
10.1126/science.160.3832.1140-a,10.1126/science.160.3832.1140.a,0.09277000000000157,self,duplicate
10.1001/jama.1992.03480030015006,10.1001/jama.267.3.337,4.948530000000005,self,duplicate-check
10.2307/2536758,10.1525/jps.1986.15.3.00p0286y,2.225189999999998,self,duplicate
10.1094/pd-69-1067,10.1094/pd-68-1067,3.944755999999998,self,duplicate
10.2307/2514396,10.1215/00182168-56.3.490,8.848425000000006,other,duplicate-check
10.1175/1520-0493(1908)36<4:rpboma>2.0.co;2,10.1175/1520-0493(1908)36<73:rpboma>2.0.co;2,6.2077699999999965,self,duplicate-check
10.1175/1520-0493(1908)36<4:rpboma>2.0.co;2,10.1175/1520-0493(1908)36<19:rpboma>2.0.co;2,0.09576599999999758,self,duplicate-check
10.1175/1520-0493(1908)36<4:rpboma>2.0.co;2,10.1175/1520-0493(1908)36<114:rpboma>2.0.co;2,0.06450499999999693,self,duplicate-check
10.1017/s0043887119000212,10.1017/s0043887120000210,9.656104,self,duplicate-check
10.1017/s0043887119000212,10.1017/s0043887120000155,9.851823999999993,self,duplicate-check
10.1016/0022-3913(81)90088-3,10.1016/0022-3913(81)90323-1,0.06947999999999865,self,duplicate-check
10.1016/0022-3913(81)90088-3,10.1016/0022-3913(81)90259-6,0.2609300000000019,self,duplicate-check
10.2165/00128415-200812070-00007,10.2165/00128415-200812070-00086,2.0770339999999976,self,duplicate
10.1111/j.1558-5646.1998.tb05164.x,10.2307/2410946,9.931350000000009,other,duplicate-check
10.1021/cen-v088n013.p002,10.1021/cen-v088n015.ifc,4.003339999999994,self,duplicate-check
10.1021/cen-v088n013.p002,10.1021/cen-v088n014.p033,4.003339999999994,self,duplicate-check
10.2307/25065353,10.2307/25065458,1.7969400000000064,self,duplicate
10.1080/09853111.2002.10510751,10.1016/s0985-3111(02)01087-2,2.213060000000013,other,duplicate
10.2307/1505461,10.1179/sic.1973.008,3.5442000000000036,other,duplicate
10.1080/j354v19n02_12,10.1300/j354v19n02_12,7.677023999999989,other,duplicate-check
10.3917/spub.083.0121,10.3917/spub.080.0121,3.8019199999999955,self,duplicate
10.1080/05775132.1966.11469898,10.1080/05775132.1966.11469846,4.984392999999997,self,duplicate-check
10.1080/05775132.1966.11469898,10.1080/05775132.1966.11469885,6.025219999999997,self,duplicate-check
10.26442/2075-1753_2015.2.36-40,10.26442/2075-1753_19.12.94-99,9.987293000000008,self,duplicate-check
10.2134/jnrlse.1994.0010,10.2134/jnrlse.1994.0086,8.807230000000004,self,duplicate-check
10.1175/1520-0493(1905)334<c9:cisist>2.0.co;2,10.1175/1520-0493(1905)333<c37:cisist>2.0.co;2,6.731690000000015,self,duplicate-check
10.1175/1520-0493(1905)334<c9:cisist>2.0.co;2,10.1175/1520-0493(1905)331<c9:cisist>2.0.co;2,6.731690000000015,self,duplicate-check
10.1175/1520-0493(1905)334<c9:cisist>2.0.co;2,10.1175/1520-0493(1905)336<c9:cisist>2.0.co;2,7.255340000000018,self,duplicate-check
10.1175/1520-0493(1905)334<c9:cisist>2.0.co;2,10.1175/1520-0493(1905)332<c9:cisist>2.0.co;2,7.414050000000003,self,duplicate-check
10.1155/2007/848706,10.1155/2007/625783,0.501560000000012,self,duplicate
10.37891/kpej.v1i1.36,10.30862/kpej.v1i1.779,6.927519999999987,self,duplicate-check
10.1016/j.petrol.2021.109155,10.1155/2021/5526335,3.51194000000001,other,duplicate-check
10.1016/j.petrol.2021.109155,10.1155/2021/5531388,1.324150000000003,other,duplicate-check
10.1016/j.petrol.2021.109155,10.1155/2020/8827917,3.8341000000000065,other,duplicate-check
10.1016/j.petrol.2021.109155,10.1155/2022/2071887,4.434169999999995,other,duplicate-check
10.1017/s003118200005839x,10.1017/s0031182000048411,0.11823499999999854,self,duplicate-check
10.1017/s003118200005839x,10.1017/s0031182000049428,0.09434000000000253,self,duplicate-check
10.1017/s003118200005839x,10.1017/s0031182000043110,0.15638500000000022,self,alias-check
10.1097/00000539-199701000-00043,10.1213/00000539-199701000-00043,0.032250000000004775,self,duplicate
10.1109/tsg.2021.3109648,10.1109/tsg.2021.3060848,0.11493000000000109,self,duplicate-check
10.1109/tsg.2021.3109648,10.1109/tsg.2021.3069385,0.11493000000000109,self,duplicate-check
10.1109/tsg.2021.3109648,10.1109/tsg.2021.3090071,0.04704000000000974,self,duplicate-check
10.1109/tsg.2021.3109648,10.1109/tsg.2021.3104730,0.04704000000000974,self,duplicate-check
10.31800/jtp.kw.v6n1.p58--67,10.31800/jtpk.v6n1.p58--67,0.5150199999999927,self,duplicate-check
10.31800/jtp.kw.v6n1.p58--67,10.31800/jtp.kw.v6n1.p74--91,1.7460999999999842,self,duplicate-check
10.1787/502181ae-en,10.1787/6da4578c-en,0.11071499999999901,self,duplicate-check
10.1787/502181ae-en,10.1787/20143f73-en,0.08995500000000334,self,duplicate-check
10.2142/biophys.54.s127_5,10.2142/biophys.54.s127_1,7.176729999999992,self,duplicate-check
10.1136/bmj.2.2277.e25,10.1136/bmj.1.2250.e25,9.644504999999995,self,duplicate-check
10.1080/10428190802010621,10.1080/10428190802005183,2.560654999999997,self,duplicate
10.1088/1742-6596/2078/1/011002,10.1088/1742-6596/2021/1/011002,8.654037000000002,self,duplicate-check
10.1088/1742-6596/2078/1/011002,10.1088/1742-6596/1894/1/011002,9.102944999999998,self,duplicate-check
10.1088/1742-6596/2078/1/011002,10.1088/1742-6596/1870/1/011002,9.102944999999998,self,duplicate-check
10.1088/1742-6596/2078/1/011002,10.1088/1742-6596/2115/1/011002,9.102944999999998,self,duplicate-check
10.1093/cercor/bhab195,10.1093/cercor/bhab106,0.41023000000000565,self,duplicate-check
10.1093/cercor/bhab195,10.1093/cercor/bhab203,0.41023000000000565,self,duplicate-check
10.1093/cercor/bhab195,10.1093/cercor/bhab119,0.33165000000000333,self,duplicate-check
10.1093/cercor/bhab195,10.1093/cercor/bhab336,0.33165000000000333,self,duplicate-check
10.2307/3410340,10.1097/00000446-193109000-00027,2.6880350000000064,other,duplicate-check
10.2307/3410340,10.2307/3410065,6.642575000000008,self,duplicate-check
10.2307/3410340,10.2307/3410375,6.659611000000005,self,duplicate-check
10.2307/3410340,10.2307/3410975,6.795090000000002,self,duplicate-check
10.2307/2547769,10.1177/019791839803200306,3.4307599999999923,other,duplicate
10.46377/dilemas.v8i3.2665,10.46377/dilemas.v8i.2790,1.5857000000000312,self,duplicate
10.1111/1540_6245.jaac26.4.0501,10.2307/428318,9.302300000000002,other,duplicate-check
10.1016/0167-2584(87)90607-4,10.1016/s0039-6028(87)80029-8,1.913800000000009,self,duplicate
10.1093/nq/s5-vii.164.131d,10.1093/nq/s5-vii.164.131e,7.384719999999987,self,duplicate-check
10.1093/nq/s5-vii.164.131d,10.1093/nq/s5-vii.164.131b,7.645859999999999,self,duplicate-check
10.1093/nq/s5-vii.164.131d,10.1093/nq/s5-vii.164.131c,8.954204999999988,self,duplicate-check
10.1093/nq/s5-vii.164.131d,10.1093/nq/s5-vii.164.131a,9.275339999999986,self,duplicate-check
10.2307/3005924,10.1093/sf/77.4.1687,4.953659999999999,self,duplicate-check
10.1177/155698451501000611,10.1097/imi.0000000000000210,0.445920000000001,self,duplicate
10.2307/829281,10.1525/jams.1948.11-12-13.1.03a00240,7.9830439999999925,self,duplicate-check
10.2307/3563862,10.2307/3563610,7.603370999999996,self,duplicate-check
10.1128/mcb.8.8.3382,10.1128/mcb.8.8.3382-3390.1988,0.10314999999999941,self,duplicate
10.1177/002205741608400703,10.1177/002205741608400704,8.511659999999992,self,duplicate-check
10.1109/mcom.1987.1093502,10.1109/mcom.1987.1093559,4.004547000000002,self,duplicate-check
10.1109/mcom.1987.1093502,10.1109/mcom.1987.1093626,4.004547000000002,self,duplicate-check
10.1109/mcom.1987.1093502,10.1109/mcom.1987.1093447,4.004547000000002,self,duplicate-check
10.1109/mcom.1987.1093502,10.1109/mcom.1987.1093536,4.004547000000002,self,duplicate-check
10.2307/1213348,10.1525/fq.1996.50.1.04a00280,2.4083200000000033,self,duplicate
10.1524/zkri.1975.142.5-6.450,10.1524/zkri.1975.142.16.450,0.061070000000000846,self,duplicate
10.18412/1816-0395-2016-6-50-53,10.18412/1816-0395-2016-5-40-46,3.0314500000000066,self,duplicate
10.1111/j.0742-2822.2004.21_8-iscu.x,10.1111/j.0742-2822.2004.t01-5-.x,7.197632000000013,self,duplicate-check
10.1111/j.0742-2822.2004.21_8-iscu.x,10.1111/j.0742-2822.2004..x,8.972306000000003,self,duplicate-check
10.1016/s1051-0443(20)30091-9,10.1016/s1051-0443(22)00843-0,8.847184999999996,self,duplicate-check
10.1016/s1051-0443(20)30091-9,10.1016/s1051-0443(15)00036-6,9.092754999999997,self,duplicate-check
10.1016/s1051-0443(20)30091-9,10.1016/s1051-0443(17)30014-3,9.092754999999997,self,duplicate-check
10.1016/s1051-0443(20)30091-9,10.1016/s1051-0443(16)00215-3,9.261494999999996,self,duplicate-check
10.3390/nu11030526,10.3390/nu11092160,1.1923500000000047,self,correction
10.1126/science.197.4306.858.a,10.1126/science.197.4306.858-a,0.0,self,duplicate
10.31525/ct1-nct04069403,10.31525/ct1-nct04155229,2.106544999999997,self,duplicate
10.1051/0004-6361:20041817,10.1051/0004-6361:20041816,9.825580000000002,self,duplicate-check
10.1016/s0955-3886(97)87118-4,10.1016/s0955-3886(97)85542-7,0.522989999999993,self,duplicate-check
10.1016/s0955-3886(97)87118-4,10.1016/s0955-3886(97)88490-1,0.522989999999993,self,duplicate-check
10.2307/1211536,10.1525/fq.1971.25.2.04a00050,0.02734999999999843,self,duplicate
10.1080/00201745808601268,10.1080/00201747208601654,9.457378000000002,self,duplicate-check
10.1177/13684310122224984,10.1177/1368431001004001004,0.6207950000000011,self,duplicate
10.1177/018476788603000117,10.1177/018476788603000116,9.608215000000001,self,duplicate-check
10.1227/00006123-200209000-00043,10.1097/00006123-200209000-00043,4.28658999999999,self,alias-check
10.1001/jama.214.1.118,10.1001/jama.1970.03180010060013,4.206334999999996,self,duplicate-check
10.1097/00006250-200307000-00046,10.1016/s0029-7844(03)00490-3,0.053893999999999664,self,duplicate
10.1097/00042728-200711000-00006,10.1111/j.1524-4725.2007.33285.x,8.998149999999981,self,duplicate-check
10.1016/j.canrad.2013.10.004,10.1016/j.canrad.2013.10.003,5.971490000000017,self,duplicate-check
10.1016/j.canrad.2013.10.004,10.1016/j.canrad.2013.03.008,7.894720000000007,self,duplicate-check
10.25115/eea.v39i1.3254,10.25115/eea.v39i2.3254,0.9041800000000109,self,duplicate
10.22610/jebs.v10i1(j).2087,10.22610/jebs.v10i1.2087,1.9349100000000021,self,duplicate
10.2139/ssrn.910752,10.2139/ssrn.1281273,5.171689999999998,self,duplicate-check
10.1002/ejoc.201290012,10.1002/ejoc.201101449,1.8745190000000065,self,duplicate
10.1016/s0016-5085(08)80705-6,10.1016/s0016-5085(01)80705-8,3.7767399999999895,self,duplicate
10.1177/0266382014238195,10.1177/0266382014238096,6.071095,self,duplicate-check
10.1097/01823246-200418040-00020,10.1097/01823246-200718040-00020,5.52358000000001,self,duplicate-check
10.1001/archinte.1988.00380090095023,10.1001/archinte.148.9.2027,3.3972149999999885,self,duplicate
10.1017/s0022143000007905,10.3189/s0022143000007905,6.384800000000013,other,duplicate-check
10.1177/00034894750840s205,10.1177/0003489475084s1905,0.18100599999999645,self,duplicate
10.1093/nq/49.3.329,10.1093/nq/490329,0.4054399999999987,self,alias
10.1034/j.1399-3054.1996.980111.x,10.1111/j.1399-3054.1996.tb00679.x,1.1480899999999963,self,duplicate
10.1163/2667078x-01002001,10.16934/isr.10.1.200906.29,6.9842960000000005,other,duplicate-check
10.1002/mmr.31252,10.1002/mmr.30116,7.569797000000001,self,duplicate-check
10.2307/3212825,10.1017/s0021900200094286,3.0751300000000015,self,duplicate
10.31817/vjas.2019.2.3.04,10.31817/10.31817/vjas.2019.2.3.04,0.0,self,duplicate
10.18203/2320-6012.ijrms20173006,10.26452/ijrps.v12i1.4216,1.8630289999999974,other,duplicate
10.18796/0041-5790-2022-6-35-40,10.18796/0041-5790-2022-2-26-28,4.766199999999998,self,duplicate-check
10.1111/j.2164-0947.1883.tb03280.x,10.1111/j.2164-0947.1883.tb03308.x,0.013580000000004588,self,duplicate-check
10.1111/j.2164-0947.1883.tb03280.x,10.1111/j.2164-0947.1883.tb03295.x,0.09749300000000005,self,duplicate-check
10.1111/j.2164-0947.1883.tb03280.x,10.1111/j.2164-0947.1883.tb03304.x,0.09749300000000005,self,duplicate-check
10.1111/j.2164-0947.1883.tb03280.x,10.1111/j.2164-0947.1883.tb03312.x,0.13469699999999563,self,duplicate-check
10.5479/si.gvp.sean198710-345033,10.5479/si.gvp.sean198712-345033,2.6971399999999903,self,duplicate-check
10.5479/si.gvp.sean198710-345033,10.5479/si.gvp.sean198704-345033,3.88485,self,duplicate-check
10.5479/si.gvp.sean198710-345033,10.5479/si.gvp.sean198705-345033,3.890989999999988,self,duplicate-check
10.5479/si.gvp.sean198710-345033,10.5479/si.gvp.sean198711-345033,3.8914199999999965,self,duplicate-check
10.1016/j.cad.2007.02.007,10.1016/j.cad.2007.09.001,7.230220000000003,self,duplicate-check
10.1504/ijsnet.2016.080201,10.1504/ijsnet.2016.10001031,0.9395800000000065,self,alias
10.1097/00000539-199703000-00057,10.1213/00000539-199703000-00057,0.037824999999998,self,duplicate
10.3917/sss.293.0005,10.1684/29-3.2011.0301,5.307099999999991,other,duplicate-check
10.1227/01.neu.0000309112.17087.28,10.1097/00006123-200212000-00006,4.512769999999989,self,alias-check
10.22146/jfi.24428,10.22146/jfi.13747,0.0,self,duplicate
10.1016/j.jelechem.2004.06.025,10.1016/s0022-0728(04)00340-7,0.06927499999999043,self,duplicate
10.7748/ns2005.05.19.36.41.c3868,10.7748/ns.19.36.41.s58,0.0,self,duplicate
10.1182/blood.v63.3.634.634,10.1182/blood.v63.3.634.bloodjournal633634,1.7400499999999965,self,duplicate
10.1093/bjc/azg636,10.1093/bjc/43.3.636,0.0,self,duplicate
10.1001/jama.1968.03140390048013,10.1001/jama.205.13.924,9.811967000000003,self,duplicate-check
10.1126/science.48.1240.345.b,10.1126/science.48.1240.345-b,0.12571499999999958,self,duplicate
10.1016/s0016-5085(01)83391-6,10.1016/s0016-5085(08)83391-4,8.230430000000013,self,duplicate-check
10.1161/circulationaha.105.166552,10.1161/circulationaha.105.166555,8.806165999999997,self,duplicate-check
10.3917/sss.253.0041,10.3406/sosan.2007.2083,1.678210000000007,other,duplicate
10.2514/8.10120,10.2514/8.10119,7.021076999999998,self,duplicate-check
10.1111/j.1749-6632.1965.tb30697.x,10.1111/j.1749-6632.1964.tb34765.x,1.2730200000000025,self,duplicate
10.1109/t-aiee.1938.5057774,10.1109/ee.1938.6431071,7.758955,self,duplicate-check
10.1111/0031-868x.00209,10.1111/j.1477-9730.2002.tb01906.x,1.9263750000000073,self,alias
10.18679/cn11-6030/r.2017.002,10.18679/cn11-6030_r.2017.002,7.744680000000017,self,duplicate-check
10.1046/j.1525-1373.2000.2253d1.x,10.1111/j.1525-1373.2000.2253d1.x,0.6809919999999892,self,duplicate
10.1080/000164801317166808,10.1080/00016480127376,4.184490000000011,self,duplicate-check
10.2139/ssrn.2179022,10.2139/ssrn.2405092,3.964269999999999,self,duplicate
10.2139/ssrn.3266899,10.2139/ssrn.3158140,0.20694999999999197,self,duplicate
10.1017/s0002731600087497,10.1017/s0002731600087710,0.25849999999999795,self,duplicate-check
10.1017/s0002731600087497,10.1017/s0002731600086686,0.18522000000000105,self,duplicate-check
10.1017/s0002731600087497,10.1017/s0002731600087977,0.18522000000000105,self,duplicate-check
10.1017/s0002731600087497,10.1017/s0002731600101520,0.23099000000000558,self,duplicate-check
10.1163/18756735-90000379,10.5840/gps19883216,1.5986900000000048,other,duplicate
10.1109/tip.2017.2701139,10.1109/tip.2017.2676060,0.10791999999999291,self,duplicate-check
10.1109/tip.2017.2701139,10.1109/tip.2017.2721722,0.10791999999999291,self,duplicate-check
10.1109/tip.2017.2701139,10.1109/tip.2017.2700261,0.06246999999999048,self,duplicate-check
10.1109/tip.2017.2701139,10.1109/tip.2017.2738391,0.0,self,duplicate-check
10.1525/mts.1999.21.1.02a00090,10.2307/745926,0.3890299999999911,self,duplicate
10.1016/j.rapm.2005.03.010,10.1097/00115550-200505000-00028,3.7163639999999987,self,duplicate
10.1109/jdt.2006.882952,10.1109/jdt.2006.871751,0.16880999999999347,self,duplicate-check
10.1109/jdt.2006.882952,10.1109/jdt.2006.877323,0.16880999999999347,self,duplicate-check
10.1109/jdt.2006.882952,10.1109/jdt.2006.887868,0.1122749999999968,self,duplicate-check
10.1109/jdt.2006.882952,10.1109/jdt.2007.892951,4.282970000000006,self,duplicate-check
10.1525/curh.1918.8p2.2.326,10.1525/curh.1918.8.2.326,0.8075050000000061,self,duplicate
10.36709/jppg.v4i1.5593,10.36709/jppg.v4i2.6997,1.255899999999997,self,duplicate
10.1016/s0021-9517(12)00136-4,10.1016/s0021-9517(12)00201-1,8.291737000000005,self,duplicate-check
10.1016/s0021-9517(12)00136-4,10.1016/s0021-9517(12)00307-7,8.347732999999998,self,duplicate-check
10.1016/s0021-9517(12)00136-4,10.1016/s0021-9517(12)00241-2,8.449078,self,duplicate-check
10.1002/cala.40372,10.1002/cala.40371,0.0,self,duplicate-check
10.1002/cala.40372,10.1002/cala.40350,0.12066999999998984,self,duplicate-check
10.1002/cala.40372,10.1002/cala.40327,0.21141999999998973,self,duplicate-check
10.1002/cala.40372,10.1002/cala.40328,2.6899599999999992,self,duplicate-check
10.12688/f1000research.22264.3,10.12688/f1000research.22264.1,0.04169999999999163,self,new_version-check
10.12688/f1000research.22264.3,10.12688/f1000research.22264.2,0.16247000000001321,self,new_version-check
10.1163/156853383x00413,10.2307/1518001,1.63964,other,duplicate
10.1017/s1357729800016428,10.1017/s1357729800016210,0.3861840000000001,self,duplicate
10.1055/s-2003-822437,10.1055/s-2003-815332,0.3212000000000046,self,duplicate
10.1192/00-000,10.1192/bjp.183.6.514,0.03731499999999244,self,duplicate
10.14744/alrj.2019.79188,10.14744/alrj.2018.18209,2.564150000000012,self,duplicate
